<?xml version="1.0" encoding="UTF-8" standalone="no"?>
<svg
   xmlns:dc="http://purl.org/dc/elements/1.1/"
   xmlns:cc="http://creativecommons.org/ns#"
   xmlns:rdf="http://www.w3.org/1999/02/22-rdf-syntax-ns#"
   xmlns:svg="http://www.w3.org/2000/svg"
   xmlns="http://www.w3.org/2000/svg"
   xmlns:sodipodi="http://sodipodi.sourceforge.net/DTD/sodipodi-0.dtd"
   xmlns:inkscape="http://www.inkscape.org/namespaces/inkscape"
   fill="#FFFFFF"
   height="24"
   viewBox="0 0 24 24"
   width="24"
   id="svg2"
   version="1.1"
   inkscape:version="0.91 r13725"
   sodipodi:docname="form.svg"
   inkscape:export-filename="C:\Users\Маришка\Desktop\Kakashka\pictures\costumer\form.png"
   inkscape:export-xdpi="90"
   inkscape:export-ydpi="90">
  <metadata
     id="metadata12">
    <rdf:RDF>
      <cc:Work
         rdf:about="">
        <dc:format>image/svg+xml</dc:format>
        <dc:type
           rdf:resource="http://purl.org/dc/dcmitype/StillImage" />
        <dc:title></dc:title>
      </cc:Work>
    </rdf:RDF>
  </metadata>
  <defs
     id="defs10" />
  <sodipodi:namedview
     pagecolor="#ffffff"
     bordercolor="#666666"
     borderopacity="1"
     objecttolerance="10"
     gridtolerance="10"
     guidetolerance="10"
     inkscape:pageopacity="0"
     inkscape:pageshadow="2"
     inkscape:window-width="1280"
     inkscape:window-height="738"
     id="namedview8"
     showgrid="false"
     inkscape:zoom="1.7383042"
     inkscape:cx="-51.200176"
     inkscape:cy="17.432857"
     inkscape:window-x="-8"
     inkscape:window-y="-8"
     inkscape:window-maximized="1"
     inkscape:current-layer="svg2" />
  <g
     id="g4146"
     inkscape:export-xdpi="90"
     inkscape:export-ydpi="90">
    <rect
       inkscape:export-ydpi="90"
       inkscape:export-xdpi="90"
       style="opacity:1;fill:#999999;fill-opacity:1;stroke:none;stroke-width:0.5;stroke-miterlimit:4;stroke-dasharray:none;stroke-opacity:1"
       id="rect5255"
       width="100"
       height="100"
       x="-50.711864"
       y="-19.898306"
       ry="8.2142859" />
    <path
       inkscape:connector-curvature="0"
       id="path6"
       d="m 24.409245,1.391855 -15.0008912,0 C 7.9010871,-2.7710717 3.9534845,-5.7856048 -0.71186461,-5.7856048 c -4.66534899,0 -8.61295179,3.0145331 -10.12021839,7.1774598 l -15.000891,0 c -3.947603,0 -7.17746,3.2298569 -7.17746,7.1774598 l 0,50.2422182 c 0,3.947602 3.229857,7.17746 7.17746,7.17746 l 50.242219,0 c 3.947602,0 7.17746,-3.229858 7.17746,-7.17746 l 0,-50.2422182 c 0,-3.9476029 -3.229858,-7.1774598 -7.17746,-7.1774598 z m -25.12110961,0 c 1.97380141,0 3.58872991,1.6149284 3.58872991,3.58873 0,1.9738014 -1.6149285,3.5887298 -3.58872991,3.5887298 -1.97380139,0 -3.58872989,-1.6149284 -3.58872989,-3.5887298 0,-1.9738016 1.6149285,-3.58873 3.58872989,-3.58873 z m 7.17746011,50.242218 -25.1211095,0 0,-7.177459 25.1211095,0 0,7.177459 z m 10.7661895,-14.354919 -35.887299,0 0,-7.177459 35.887299,0 0,7.177459 z m 0,-14.354919 -35.887299,0 0,-7.17746 35.887299,0 0,7.17746 z" />
  </g>
</svg>
