<?xml version="1.0" encoding="UTF-8" standalone="no"?>
<svg
   xmlns:dc="http://purl.org/dc/elements/1.1/"
   xmlns:cc="http://creativecommons.org/ns#"
   xmlns:rdf="http://www.w3.org/1999/02/22-rdf-syntax-ns#"
   xmlns:svg="http://www.w3.org/2000/svg"
   xmlns="http://www.w3.org/2000/svg"
   xmlns:sodipodi="http://sodipodi.sourceforge.net/DTD/sodipodi-0.dtd"
   xmlns:inkscape="http://www.inkscape.org/namespaces/inkscape"
   fill="#FFFFFF"
   height="24"
   viewBox="0 0 24 24"
   width="24"
   id="svg2"
   version="1.1"
   inkscape:version="0.91 r13725"
   sodipodi:docname="wrench.svg">
  <metadata
     id="metadata12">
    <rdf:RDF>
      <cc:Work
         rdf:about="">
        <dc:format>image/svg+xml</dc:format>
        <dc:type
           rdf:resource="http://purl.org/dc/dcmitype/StillImage" />
        <dc:title></dc:title>
      </cc:Work>
    </rdf:RDF>
  </metadata>
  <defs
     id="defs10" />
  <sodipodi:namedview
     pagecolor="#ffffff"
     bordercolor="#666666"
     borderopacity="1"
     objecttolerance="10"
     gridtolerance="10"
     guidetolerance="10"
     inkscape:pageopacity="0"
     inkscape:pageshadow="2"
     inkscape:window-width="1280"
     inkscape:window-height="738"
     id="namedview8"
     showgrid="false"
     inkscape:zoom="1.7383042"
     inkscape:cx="21.020325"
     inkscape:cy="62.153908"
     inkscape:window-x="-8"
     inkscape:window-y="-8"
     inkscape:window-maximized="1"
     inkscape:current-layer="svg2" />
  <rect
     style="opacity:1;fill:#999999;fill-opacity:1;stroke:none;stroke-width:0.5;stroke-miterlimit:4;stroke-dasharray:none;stroke-opacity:1"
     id="rect4136"
     width="100"
     height="100"
     x="30.740589"
     y="-116.53815"
     ry="8.2142859"
     inkscape:export-filename="C:\Users\Маришка\Desktop\Kakashka\wrench.png"
     inkscape:export-xdpi="90"
     inkscape:export-ydpi="90" />
  <path
     d="M 115.05914,-44.304869 85.948286,-73.415733 c 2.879091,-7.357689 1.279594,-15.994976 -4.798497,-22.073066 -6.397994,-6.398001 -15.994981,-7.677601 -23.672569,-4.1587 l 13.75568,13.75569 -9.596987,9.59698 -14.075582,-13.75568 c -3.838797,7.677591 -2.2393,17.274575 4.158693,23.672567 6.078091,6.078092 14.715379,7.67759 22.073072,4.798494 l 29.110864,29.110862 c 1.2796,1.279598 3.199,1.279598 4.47859,0 l 7.35769,-7.357689 c 1.59951,-1.279599 1.59951,-3.518896 0.3199,-4.478594 z"
     id="path6"
     style="fill:#ffffff"
     inkscape:connector-curvature="0"
     inkscape:export-filename="C:\Users\Маришка\Desktop\Kakashka\wrench.png"
     inkscape:export-xdpi="90"
     inkscape:export-ydpi="90" />
</svg>
