<?xml version="1.0" encoding="UTF-8" standalone="no"?>
<!-- Created with Inkscape (http://www.inkscape.org/) -->

<svg
   xmlns:dc="http://purl.org/dc/elements/1.1/"
   xmlns:cc="http://creativecommons.org/ns#"
   xmlns:rdf="http://www.w3.org/1999/02/22-rdf-syntax-ns#"
   xmlns:svg="http://www.w3.org/2000/svg"
   xmlns="http://www.w3.org/2000/svg"
   xmlns:sodipodi="http://sodipodi.sourceforge.net/DTD/sodipodi-0.dtd"
   xmlns:inkscape="http://www.inkscape.org/namespaces/inkscape"
   width="210mm"
   height="297mm"
   viewBox="0 0 744.09448819 1052.3622047"
   id="svg2"
   version="1.1"
   inkscape:version="0.91 r13725"
   sodipodi:docname="logo.svg">
  <defs
     id="defs4" />
  <sodipodi:namedview
     id="base"
     pagecolor="#ffffff"
     bordercolor="#666666"
     borderopacity="1.0"
     inkscape:pageopacity="0.0"
     inkscape:pageshadow="2"
     inkscape:zoom="0.49497475"
     inkscape:cx="-495.97521"
     inkscape:cy="324.16913"
     inkscape:document-units="px"
     inkscape:current-layer="layer1"
     showgrid="false"
     inkscape:object-nodes="false"
     inkscape:snap-smooth-nodes="false"
     inkscape:snap-intersection-paths="false"
     inkscape:window-width="1280"
     inkscape:window-height="738"
     inkscape:window-x="-8"
     inkscape:window-y="-8"
     inkscape:window-maximized="1" />
  <metadata
     id="metadata7">
    <rdf:RDF>
      <cc:Work
         rdf:about="">
        <dc:format>image/svg+xml</dc:format>
        <dc:type
           rdf:resource="http://purl.org/dc/dcmitype/StillImage" />
        <dc:title></dc:title>
      </cc:Work>
    </rdf:RDF>
  </metadata>
  <g
     inkscape:label="Layer 1"
     inkscape:groupmode="layer"
     id="layer1">
    <path
       style="opacity:0.57599996;fill:none;fill-opacity:1;stroke:#3026e5;stroke-width:2.80085683;stroke-miterlimit:4;stroke-dasharray:none;stroke-opacity:1"
       d="m -51.903794,353.32472 c 16.09133,27.20826 19.87666,55.21003 8.45478,62.54371 -11.42188,7.33367 -33.72575,-8.77786 -49.81708,-35.98613 -16.091326,-27.20827 -19.876666,-55.21004 -8.454776,-62.54372 11.421876,-7.33367 33.725746,8.77787 49.817076,35.98614 z"
       id="path4144"
       inkscape:connector-curvature="0"
       sodipodi:nodetypes="sssss"
       inkscape:export-xdpi="90"
       inkscape:export-ydpi="90" />
    <path
       style="opacity:0.57599996;fill:none;fill-rule:evenodd;stroke:#3026e5;stroke-width:2.56019759px;stroke-linecap:butt;stroke-linejoin:miter;stroke-opacity:1"
       d="M -329.97993,521.15669 -527.44042,620.7066"
       id="path4142"
       inkscape:connector-curvature="0"
       sodipodi:nodetypes="cc"
       inkscape:export-xdpi="90"
       inkscape:export-ydpi="90" />
    <path
       style="opacity:0.57599996;fill:none;fill-opacity:1;stroke:#3026e5;stroke-width:2.80085683;stroke-miterlimit:4;stroke-dasharray:none;stroke-opacity:1"
       d="m -329.38848,520.99527 c 11.42188,-7.33367 7.63625,-35.33667 -8.45508,-62.54493 -13.57706,-22.95698 -31.57612,-38.01422 -43.73047,-37.7539 -2.2508,0.0482 -4.30127,0.62169 -6.08594,1.76758 -0.0263,0.0169 -0.05,0.0376 -0.2577,0.11883 l -169.98321,140.96624"
       id="path4177"
       inkscape:connector-curvature="0"
       sodipodi:nodetypes="cssccc"
       inkscape:export-xdpi="90"
       inkscape:export-ydpi="90" />
    <g
       style="font-style:normal;font-weight:normal;font-size:102.40791321px;line-height:125%;font-family:sans-serif;letter-spacing:0px;word-spacing:0px;fill:#000000;fill-opacity:1;stroke:none;stroke-width:1px;stroke-linecap:butt;stroke-linejoin:miter;stroke-opacity:1"
       id="text4136"
       inkscape:export-xdpi="90"
       inkscape:export-ydpi="90">
      <path
         d="m -496.71148,502.87113 c 0,-9.85676 -8.06462,-17.79338 -17.79338,-17.79338 l -56.58037,0 c -9.85676,0 -17.79337,7.93662 -17.79337,17.79338 l 0,18.94546 c 0,9.85676 7.93661,17.79338 17.79337,17.79338 l 56.58037,0 c 0.38403,0 0.76806,0.38403 0.76806,0.89607 l 0,18.94546 c 0,0.51204 -0.38403,0.89607 -0.76806,0.89607 l -56.58037,0 c -0.51204,0 -0.89607,-0.38403 -0.89607,-0.89607 l 0,-7.04055 -16.8973,0 0,7.04055 c 0,9.85676 7.93661,17.79337 17.79337,17.79337 l 56.58037,0 c 9.72876,0 17.79338,-7.93661 17.79338,-17.79337 l 0,-18.94546 c 0,-9.85677 -8.06462,-17.79338 -17.79338,-17.79338 l -56.58037,0 c -0.51204,0 -0.89607,-0.38403 -0.89607,-0.89607 l 0,-18.94546 c 0,-0.51204 0.38403,-0.89607 0.89607,-0.89607 l 56.58037,0 c 0.38403,0 0.76806,0.38403 0.76806,0.89607 l 0,7.04054 17.02532,0 0,-7.04054 z"
         style="font-style:normal;font-variant:normal;font-weight:bold;font-stretch:normal;font-size:128.0098877px;line-height:125%;font-family:Orbitron;-inkscape-font-specification:'Orbitron, Bold';text-align:start;writing-mode:lr-tb;text-anchor:start;fill:#000000"
         id="path4167" />
      <path
         d="m -437.66492,519.76843 0,-16.76929 -28.93023,0 0,-24.32188 -16.7693,0 0,80.90225 c 0,9.72875 7.80861,17.66536 17.66537,17.66536 l 28.03416,0 0,-16.76929 -28.03416,0 c -0.51204,0 -0.89607,-0.38403 -0.89607,-0.89607 l 0,-39.81108 28.93023,0 z"
         style="font-style:normal;font-variant:normal;font-weight:bold;font-stretch:normal;font-size:128.0098877px;line-height:125%;font-family:Orbitron;-inkscape-font-specification:'Orbitron, Bold';text-align:start;writing-mode:lr-tb;text-anchor:start;fill:#000000"
         id="path4169" />
      <path
         d="m -427.48814,577.24487 16.7693,0 0,-74.24573 -16.7693,0 0,74.24573 z m 0,-98.56761 0,16.8973 16.7693,0 0,-16.8973 -16.7693,0 z"
         style="font-style:normal;font-variant:normal;font-weight:bold;font-stretch:normal;font-size:128.0098877px;line-height:125%;font-family:Orbitron;-inkscape-font-specification:'Orbitron, Bold';text-align:start;writing-mode:lr-tb;text-anchor:start;fill:#000000"
         id="path4171" />
      <path
         d="m -294.65387,519.76843 0,-16.76929 -28.93023,0 0,-24.32188 -16.7693,0 0,80.90225 c 0,9.72875 7.8086,17.66536 17.66536,17.66536 l 28.03417,0 0,-16.76929 -28.03417,0 c -0.51204,0 -0.89606,-0.38403 -0.89606,-0.89607 l 0,-39.81108 28.93023,0 z"
         style="font-style:normal;font-variant:normal;font-weight:bold;font-stretch:normal;font-size:128.0098877px;line-height:125%;font-family:Orbitron;-inkscape-font-specification:'Orbitron, Bold';text-align:start;writing-mode:lr-tb;text-anchor:start;fill:#000000"
         id="path4175" />
      <path
         d="m -379.94246,495.57456 28.03416,0 0,-16.8973 -28.03416,0 c -9.85676,0 -17.66537,7.93661 -17.66537,17.66536 l 0,80.90225 16.7693,0 0,-57.47644 28.93023,0 0,-16.76929 -28.93023,0 0,-6.65652 c 0,-0.51204 0.38403,-0.76806 0.89607,-0.76806 z"
         style="font-style:normal;font-variant:normal;font-weight:bold;font-stretch:normal;font-size:128.0098877px;line-height:125%;font-family:Orbitron;-inkscape-font-specification:'Orbitron, Bold';text-align:start;writing-mode:lr-tb;text-anchor:start;fill:#000000"
         id="path4173" />
    </g>
    <ellipse
       transform="matrix(0.82190335,-0.56962697,0.53908628,0.84225055,0,0)"
       ry="32.591763"
       rx="13.99496"
       cy="178.05177"
       cx="-775.14575"
       id="ellipse4146"
       style="opacity:0.57599996;fill:none;fill-opacity:1;stroke:#3026e5;stroke-width:2.61996484;stroke-miterlimit:4;stroke-dasharray:none;stroke-opacity:1"
       inkscape:export-xdpi="90"
       inkscape:export-ydpi="90" />
  </g>
</svg>
